<?xml version="1.0" encoding="UTF-8" standalone="no"?>
<!-- Uploaded to: SVG Repo, www.svgrepo.com, Generator: SVG Repo Mixer Tools -->

<svg
   height="800px"
   width="800px"
   version="1.1"
   id="Layer_1"
   viewBox="0 0 496.158 496.158"
   xml:space="preserve"
   sodipodi:docname="default.svg"
   inkscape:version="1.2 (dc2aedaf03, 2022-05-15)"
   inkscape:export-filename="default.png"
   inkscape:export-xdpi="36"
   inkscape:export-ydpi="36"
   xmlns:inkscape="http://www.inkscape.org/namespaces/inkscape"
   xmlns:sodipodi="http://sodipodi.sourceforge.net/DTD/sodipodi-0.dtd"
   xmlns="http://www.w3.org/2000/svg"
   xmlns:svg="http://www.w3.org/2000/svg"><defs
   id="defs61" /><sodipodi:namedview
   id="namedview59"
   pagecolor="#ffffff"
   bordercolor="#000000"
   borderopacity="0.25"
   inkscape:showpageshadow="2"
   inkscape:pageopacity="0.0"
   inkscape:pagecheckerboard="0"
   inkscape:deskcolor="#d1d1d1"
   showgrid="false"
   inkscape:zoom="1.03625"
   inkscape:cx="355.12666"
   inkscape:cy="399.51749"
   inkscape:window-width="1920"
   inkscape:window-height="1009"
   inkscape:window-x="-8"
   inkscape:window-y="-8"
   inkscape:window-maximized="1"
   inkscape:current-layer="Layer_1" />

<g
   id="g16"
   style="fill:#bebebe;fill-opacity:1"
   transform="matrix(0.45325191,0,0,0.44949571,135.63702,132.48753)">
	<polygon
   style="fill:#bebebe;fill-opacity:1"
   points="405.599,181.858 400.003,198.236 382.192,198.864 396.545,208.879 391.133,226.38 405.599,215.457 420.064,226.38 414.652,208.879 429.005,198.864 411.194,198.236 "
   id="polygon4" />
	<polygon
   style="fill:#bebebe;fill-opacity:1"
   points="406.544,198.381 396.848,191.247 399.916,202.888 389.998,210.281 402.152,210.583 405.984,222.678 410.164,210.834 422.714,211.305 412.877,203.293 417.067,191.88 "
   id="polygon6" />
	<polygon
   style="fill:#bebebe;fill-opacity:1"
   points="228.728,51.495 223.133,67.872 205.322,68.5 219.675,78.515 214.263,96.017 228.728,85.093 243.194,96.017 237.782,78.515 252.135,68.5 234.324,67.872 "
   id="polygon8" />
	<polygon
   style="fill:#bebebe;fill-opacity:1"
   points="229.674,68.018 219.977,60.883 223.046,72.524 213.128,79.917 225.282,80.22 229.114,92.314 233.294,80.471 245.844,80.941 236.007,72.929 240.197,61.517 "
   id="polygon10" />
	<polygon
   style="fill:#bebebe;fill-opacity:1"
   points="79.177,147.643 73.582,164.021 55.77,164.649 70.123,174.664 64.711,192.165 79.177,181.242 93.642,192.165 88.23,174.664 102.583,164.649 84.772,164.021 "
   id="polygon12" />
	<polygon
   style="fill:#bebebe;fill-opacity:1"
   points="80.122,164.166 70.426,157.032 73.494,168.673 63.576,176.066 75.73,176.369 79.562,188.463 83.742,176.62 96.292,177.09 86.455,169.078 90.645,157.665 "
   id="polygon14" />
</g>
<path
   style="fill:#bebebe;fill-opacity:1;stroke-width:0.451369"
   d="m 248.07926,288.04811 c -60.98233,0 -97.7424,11.1039 -97.7424,11.1039 19.35476,33.65913 55.87508,56.35507 97.74376,56.35507 41.86645,0 78.38675,-22.69549 97.74152,-56.35461 -4.6e-4,-4.6e-4 -36.76054,-11.10436 -97.74288,-11.10436 z"
   id="path18" />
<g
   id="g26"
   style="fill:#bebebe;fill-opacity:1"
   transform="matrix(0.45325191,0,0,0.44949571,135.63702,132.48753)">
	<path
   style="fill:#bebebe;fill-opacity:1"
   d="m 245.08,279.6 c -3.609,0 -6.529,2.923 -6.529,6.53 v 127.986 c 0,3.608 2.92,6.531 6.529,6.531 3.604,0 6.529,-2.923 6.529,-6.531 V 286.132 c 0,-3.609 -2.925,-6.532 -6.529,-6.532 z"
   id="path20" />
	<path
   style="fill:#bebebe;fill-opacity:1"
   d="m 221.087,268.741 c -3.349,-1.345 -7.149,0.278 -8.493,3.625 l -47.712,118.758 c -1.347,3.349 0.274,7.149 3.62,8.494 3.347,1.345 7.15,-0.279 8.494,-3.625 l 47.713,-118.759 c 1.346,-3.347 -0.281,-7.148 -3.622,-8.493 z"
   id="path22" />
	<path
   style="fill:#bebebe;fill-opacity:1"
   d="M 324.056,391.124 276.344,272.366 c -1.342,-3.348 -5.145,-4.97 -8.496,-3.625 -3.341,1.345 -4.968,5.146 -3.621,8.493 l 47.711,118.759 c 1.344,3.347 5.148,4.971 8.496,3.625 3.345,-1.345 4.968,-5.145 3.622,-8.494 z"
   id="path24" />
</g>
<path
   d="m 282.51598,308.29607 -2.87269,-7.08944 c -1.23014,1.65417 -3.54398,2.58014 -5.57321,1.98767 l 2.95339,7.2904 c 0.60917,1.50445 2.33334,2.23445 3.85084,1.6294 1.51615,-0.60457 2.25175,-2.31265 1.64167,-3.81803 z"
   id="path28"
   style="fill:#bebebe;fill-opacity:1;stroke-width:0.451369" />
<path
   d="m 213.38465,301.20663 -2.87273,7.08944 c -0.61098,1.50538 0.12445,3.21346 1.64124,3.81803 1.51657,0.60458 3.24167,-0.12537 3.85084,-1.6294 l 2.95339,-7.2904 c -2.02923,0.59247 -4.34308,-0.33308 -5.57274,-1.98767 z"
   id="path30"
   style="fill:#bebebe;fill-opacity:1;stroke-width:0.451369" />
<path
   d="m 249.68427,310.7863 c -1.65758,1.30085 -4.15317,1.29948 -5.91861,0.21979 l 0.006,7.64098 c 0,1.6218 1.32712,2.93432 2.9611,2.93388 1.63352,-6.8e-4 2.95929,-1.31657 2.95839,-2.93792 z"
   id="path32"
   style="fill:#bebebe;fill-opacity:1;stroke-width:0.451369" />
<path
   d="m 246.1208,244.74729 c -6.27848,0 -18.39888,5.84027 -18.39888,8.92474 v 6.86694 l 18.78046,3.20669 18.75786,-3.20669 v -6.86649 c -4.6e-4,-3.08444 -12.86104,-8.92519 -19.13944,-8.92519 z"
   id="path34"
   style="fill:#bebebe;fill-opacity:1;stroke-width:0.451369" />
<path
   style="fill:#bebebe;fill-opacity:1;stroke-width:0.451369"
   d="m 246.1208,244.74729 c -6.27848,0 -18.39888,5.84027 -18.39888,8.92474 l 18.78046,2.7163 18.75786,-2.7163 c -4.6e-4,-3.08399 -12.86104,-8.92474 -19.13944,-8.92474 z"
   id="path36" />
<path
   d="m 240.48777,222.79661 v 5.15349 c 0,0.98709 0.80634,1.78673 1.80077,1.78673 h 8.40463 c 0.99535,0 1.80122,-0.79964 1.80122,-1.78673 v -9.41243 z"
   id="path38"
   style="fill:#bebebe;fill-opacity:1;stroke-width:0.451369" />
<path
   style="fill:#bebebe;fill-opacity:1;stroke-width:0.451369"
   d="m 291.65764,174.98736 -86.1401,36.61457 c -0.64678,0.24363 -0.97222,0.95876 -0.72744,1.59976 l 1.881,4.92421 -9.73861,3.658 -10.8046,0.60189 5.31439,14.50792 8.67114,-6.78871 9.73677,-3.65802 1.8801,4.92287 c 0.11791,0.30747 0.35308,0.5569 0.6554,0.69177 0.16398,0.073 0.33946,0.10976 0.51401,0.10976 0.14956,0 0.30091,-0.0272 0.44369,-0.0804 l 88.98062,-29.18307 z"
   id="path40" />
<path
   style="fill:#bebebe;fill-opacity:1;stroke-width:0.451369"
   d="m 291.65764,174.98736 -86.1401,36.61457 c -0.64678,0.24363 -0.97222,0.95876 -0.72744,1.59976 l 1.881,4.92421 -9.73861,3.658 -10.8046,0.60189 1.02617,7.54343 124.14752,-47.01592 z"
   id="path42" />
<path
   style="fill:#bebebe;fill-opacity:1;stroke-width:0.451369"
   d="m 317.561,199.29744 -12.07826,-31.61888 c -0.11832,-0.30791 -0.35309,-0.55647 -0.65587,-0.69177 -0.30277,-0.13482 -0.64727,-0.14577 -0.95682,-0.0287 l -12.19111,4.58257 c -0.64588,0.2423 -0.97177,0.95836 -0.72702,1.59931 l 0.70663,1.84791 10.66637,27.92043 0.70706,1.84968 c 0.11737,0.30745 0.35308,0.55647 0.65543,0.69132 0.16363,0.0729 0.3381,0.10975 0.51441,0.10975 0.15005,0 0.3005,-0.0266 0.44375,-0.081 l 12.18929,-4.58126 c 0.64452,-0.24273 0.96997,-0.95925 0.72614,-1.59932 z"
   id="path44" />
<path
   d="m 317.561,199.29744 -6.25986,-16.38459 -14.54035,5.43442 5.56277,14.56052 0.70706,1.84966 c 0.11736,0.30744 0.35309,0.5565 0.65539,0.69133 0.16367,0.0729 0.33814,0.10974 0.51446,0.10974 0.1502,0 0.3005,-0.0265 0.44373,-0.081 l 12.1893,-4.58125 c 0.64588,-0.24228 0.97133,-0.95879 0.7275,-1.59883 z"
   id="path46"
   style="fill:#bebebe;fill-opacity:1;stroke-width:0.451369" />
<path
   style="fill:#bebebe;fill-opacity:1;stroke-width:0.451369"
   d="m 186.12653,222.38488 -1.41187,0.0786 c -0.39843,0.0226 -0.76191,0.2315 -0.97994,0.56276 -0.2171,0.33126 -0.26197,0.74526 -0.12049,1.11519 l 4.94679,12.94953 c 0.14175,0.36994 0.45234,0.65085 0.83624,0.75604 0.10906,0.0301 0.22347,0.0451 0.33405,0.0451 0.27786,0 0.55159,-0.0917 0.77462,-0.26656 l 0.93551,-0.7322 z"
   id="path48" />
<path
   d="m 188.67381,229.33632 -2.68055,1.03159 2.56816,6.72354 c 0.14205,0.36997 0.45231,0.65091 0.83622,0.7561 0.10917,0.03 0.22348,0.045 0.33406,0.045 0.27785,0 0.55161,-0.0917 0.77463,-0.26656 l 0.9355,-0.73221 z"
   id="path50"
   style="fill:#bebebe;fill-opacity:1;stroke-width:0.451369" />
<path
   d="m 243.32511,209.6974 v 36.54221 c 0,1.50356 6.33146,1.50356 6.33146,0 V 209.6974 c -4.4e-4,-1.50401 -6.33146,-1.50401 -6.33146,0 z"
   id="path52"
   style="fill:#bebebe;fill-opacity:1;stroke-width:0.451369" />
<ellipse
   cx="246.21638"
   cy="209.41336"
   id="circle54"
   style="fill:#bebebe;fill-opacity:1;stroke-width:0.451369"
   rx="4.2800579"
   ry="4.2445874" />
<ellipse
   style="fill:#bebebe;fill-opacity:1;stroke-width:0.451369"
   cx="246.21638"
   cy="209.41336"
   id="circle56"
   rx="2.006546"
   ry="1.9899176" />
</svg>
